<?xml version="1.0" encoding="utf-8"?>
<!-- Generator: Adobe Illustrator 18.1.1, SVG Export Plug-In . SVG Version: 6.00 Build 0)  -->
<!DOCTYPE svg PUBLIC "-//W3C//DTD SVG 1.1//EN" "http://www.w3.org/Graphics/SVG/1.1/DTD/svg11.dtd">
<svg version="1.1" id="Layer_1" xmlns="http://www.w3.org/2000/svg" xmlns:xlink="http://www.w3.org/1999/xlink" x="0px" y="0px"
	 viewBox="-529 340.9 131.9 160" enable-background="new -529 340.9 131.9 160" xml:space="preserve">
<g>
	<path fill="#522A6B" d="M-449,431.2c0,0.5,0,1-0.1,1.5c-0.1,0.5-0.3,1-0.6,1.5c-0.4,0.6-0.8,1.2-1.3,1.6c-0.5,0.4-1,0.7-1.6,0.9
		c-0.6,0.2-1.2,0.2-1.8,0.1c-0.6-0.1-1.2-0.3-1.8-0.6c-0.6-0.3-1.1-0.8-1.4-1.2c-0.4-0.5-0.6-1-0.8-1.6c-0.1-0.6-0.2-1.2-0.1-1.8
		c0.1-0.6,0.3-1.3,0.7-1.9c0.3-0.5,0.6-0.9,0.9-1.2c0.4-0.3,0.7-0.6,1.2-0.9l1.2,1.4c-0.3,0.2-0.6,0.4-0.9,0.7
		c-0.3,0.3-0.5,0.6-0.7,0.9c-0.2,0.4-0.3,0.7-0.4,1.1c-0.1,0.4-0.1,0.7,0,1c0.1,0.3,0.2,0.6,0.5,0.9c0.2,0.3,0.5,0.5,0.9,0.7
		c0.4,0.2,0.7,0.3,1.1,0.4c0.4,0.1,0.7,0,1,0c0.3-0.1,0.6-0.2,0.9-0.5c0.3-0.2,0.5-0.5,0.7-0.9c0.2-0.3,0.3-0.7,0.4-1.1
		c0.1-0.4,0.1-0.8,0.1-1.2L-449,431.2z"/>
	<polygon fill="#522A6B" points="-444.3,424.4 -447.5,422.6 -449.2,425.6 -446.1,427.4 -447.1,429.2 -454.9,424.7 -453.9,422.9 
		-450.8,424.7 -449.1,421.7 -452.1,419.9 -451.1,418.1 -443.3,422.6 	"/>
	<path fill="#522A6B" d="M-438.8,414.9l-1.8-0.2l-1.6,2.7l1.1,1.4l-1.1,1.8l-5.8-8.2l0.1-0.2l10,0.9L-438.8,414.9z M-444.6,414.1
		l1.4,1.9l0.9-1.5L-444.6,414.1z"/>
	<polygon fill="#522A6B" points="-432.9,404.7 -436.8,402.5 -435.3,406.3 -435.4,406.5 -439.4,407.1 -435.6,409.4 -436.6,411.1 
		-444.3,406.2 -444.2,406 -437.7,405 -440.2,399 -440,398.7 -431.9,402.9 	"/>
	<path fill="#522A6B" d="M-432.1,391.6c0.4,0.2,0.7,0.5,1,0.8c0.3,0.3,0.4,0.7,0.5,1.1c0.1,0.4,0.1,0.9,0,1.3
		c-0.1,0.5-0.3,1-0.6,1.5c-0.1,0.1-0.1,0.2-0.2,0.3c-0.1,0.1-0.1,0.2-0.2,0.3l2.3,1.4l-1,1.8l-7.8-4.5c0.4-0.9,0.8-1.6,1.1-2.3
		c0.3-0.6,0.7-1,1.1-1.4c0.4-0.3,0.8-0.6,1.2-0.8c0.4-0.2,0.8-0.2,1.3-0.2C-433,391.2-432.5,391.3-432.1,391.6 M-433.2,393.4
		c-0.3-0.2-0.6-0.2-1-0.1c-0.3,0.1-0.6,0.4-0.9,0.8c-0.1,0.1-0.1,0.2-0.2,0.3c0,0.1-0.1,0.2-0.2,0.4l2.2,1.3
		c0.1-0.1,0.1-0.2,0.2-0.3c0-0.1,0.1-0.2,0.1-0.2c0.3-0.5,0.4-0.9,0.3-1.3C-432.6,393.9-432.8,393.7-433.2,393.4"/>
	<rect x="-433.7" y="388" transform="matrix(-0.866 -0.5 0.5 -0.866 -995.3031 511.4193)" fill="#522A6B" width="9" height="2.1"/>
	<path fill="#522A6B" d="M-422.5,377.6c0.6,0.3,1.1,0.7,1.4,1.2c0.4,0.5,0.6,1,0.8,1.6c0.2,0.6,0.2,1.2,0.1,1.8
		c-0.1,0.6-0.3,1.2-0.6,1.8c-0.4,0.6-0.8,1.1-1.3,1.5c-0.5,0.4-1,0.6-1.6,0.8c-0.6,0.1-1.1,0.2-1.7,0.1c-0.6-0.1-1.2-0.3-1.8-0.6
		c-0.6-0.3-1.1-0.7-1.4-1.2c-0.4-0.5-0.6-1-0.8-1.6s-0.2-1.1-0.1-1.8c0.1-0.6,0.3-1.2,0.6-1.8c0.3-0.6,0.8-1.1,1.3-1.5
		c0.5-0.4,1-0.6,1.6-0.8c0.6-0.1,1.1-0.2,1.7-0.1C-423.7,377-423.1,377.3-422.5,377.6 M-423.6,379.5c-0.4-0.2-0.7-0.3-1.1-0.4
		c-0.4-0.1-0.7-0.1-1,0c-0.3,0.1-0.6,0.2-0.9,0.4c-0.3,0.2-0.5,0.4-0.7,0.7c-0.2,0.3-0.3,0.6-0.3,0.9c0,0.3,0,0.6,0.1,0.9
		c0.1,0.3,0.3,0.6,0.5,0.9c0.2,0.3,0.5,0.5,0.9,0.7c0.3,0.2,0.7,0.3,1.1,0.4c0.4,0.1,0.7,0.1,1,0c0.3-0.1,0.6-0.2,0.9-0.4
		c0.3-0.2,0.5-0.4,0.7-0.7c0.2-0.3,0.3-0.6,0.3-1c0-0.3,0-0.6-0.1-0.9c-0.1-0.3-0.3-0.6-0.5-0.9C-423,380-423.3,379.7-423.6,379.5"
		/>
	<polygon fill="#522A6B" points="-413.2,370.9 -420.2,373.2 -416.1,375.5 -417.1,377.3 -425.1,372.8 -425,372.5 -418.1,370.3 
		-422.1,367.9 -421.1,366.1 -413.1,370.7 	"/>
	<rect x="-419.5" y="363.5" transform="matrix(-0.866 -0.5 0.5 -0.866 -956.676 472.7943)" fill="#522A6B" width="9" height="2.1"/>
	<polygon fill="#522A6B" points="-405,356.6 -411.9,358.9 -407.8,361.2 -408.9,363 -416.8,358.5 -416.7,358.2 -409.8,356 
		-413.9,353.6 -412.8,351.8 -404.9,356.4 	"/>
	<path fill="#522A6B" d="M-403.9,344.2l3.7,2.2c0,0.6-0.1,1.1-0.2,1.7c-0.1,0.6-0.4,1.1-0.7,1.7c-0.3,0.6-0.7,1.1-1.2,1.4
		c-0.5,0.4-1,0.7-1.6,0.8c-0.6,0.2-1.2,0.2-1.8,0.1c-0.6-0.1-1.2-0.3-1.8-0.6c-0.6-0.3-1.1-0.8-1.5-1.3c-0.4-0.5-0.6-1-0.8-1.6
		c-0.1-0.6-0.2-1.2-0.1-1.8c0.1-0.6,0.3-1.2,0.7-1.8c0.3-0.5,0.6-0.9,1-1.3c0.4-0.4,0.8-0.7,1.2-0.9l1,1.6c-0.6,0.4-1.1,0.9-1.4,1.5
		c-0.2,0.4-0.4,0.8-0.4,1.1c-0.1,0.4,0,0.7,0.1,1c0.1,0.3,0.3,0.6,0.5,0.9c0.2,0.3,0.5,0.5,0.9,0.7c0.4,0.2,0.7,0.4,1.1,0.4
		c0.4,0.1,0.7,0,1,0c0.3-0.1,0.6-0.2,0.9-0.4c0.3-0.2,0.5-0.5,0.7-0.8c0.2-0.3,0.3-0.5,0.4-0.7c0.1-0.2,0.1-0.4,0.1-0.6l-1.2-0.7
		l-0.9,1.6l-1.5-0.9L-403.9,344.2z"/>
	<polygon fill="#522A6B" points="-438.9,441.7 -439.1,442 -449.1,441.1 -447.9,439.1 -442.6,439.7 -445.8,435.5 -444.7,433.4 	"/>
	<path fill="#522A6B" d="M-435.4,426.5c0.6,0.3,1.1,0.7,1.4,1.2c0.4,0.5,0.6,1,0.8,1.6c0.2,0.6,0.2,1.2,0.1,1.8
		c-0.1,0.6-0.3,1.2-0.6,1.8c-0.3,0.6-0.8,1.1-1.3,1.5c-0.5,0.4-1,0.6-1.6,0.8c-0.6,0.1-1.1,0.2-1.7,0.1c-0.6-0.1-1.2-0.3-1.8-0.6
		c-0.6-0.3-1.1-0.7-1.4-1.2c-0.4-0.5-0.7-1-0.8-1.6c-0.2-0.6-0.2-1.1-0.1-1.8c0.1-0.6,0.3-1.2,0.6-1.8c0.4-0.6,0.8-1.1,1.3-1.5
		c0.5-0.4,1-0.6,1.6-0.8c0.6-0.1,1.1-0.2,1.7-0.1C-436.6,426-436,426.2-435.4,426.5 M-436.6,428.5c-0.4-0.2-0.7-0.3-1.1-0.4
		c-0.4-0.1-0.7-0.1-1,0c-0.3,0.1-0.6,0.2-0.9,0.4c-0.3,0.2-0.5,0.4-0.7,0.7c-0.2,0.3-0.3,0.6-0.3,0.9c0,0.3,0,0.6,0.1,0.9
		c0.1,0.3,0.3,0.6,0.5,0.9c0.2,0.3,0.5,0.5,0.9,0.7c0.3,0.2,0.7,0.3,1.1,0.4c0.4,0.1,0.7,0.1,1,0c0.3-0.1,0.6-0.2,0.9-0.4
		s0.5-0.4,0.7-0.7c0.2-0.3,0.3-0.6,0.3-1c0-0.3,0-0.6-0.1-0.9c-0.1-0.3-0.3-0.6-0.5-0.9C-435.9,428.9-436.2,428.7-436.6,428.5"/>
	<polygon fill="#522A6B" points="-430.1,426.3 -437.9,421.7 -436.9,419.9 -430.7,423.5 -428.9,420.4 -427.2,421.3 	"/>
	<path fill="#522A6B" d="M-425.4,410.9c1.1,0.6,1.7,1.4,2,2.3c0.2,0.9,0,1.9-0.6,3c-0.6,1.1-1.4,1.7-2.2,2c-0.9,0.2-1.9,0-3-0.6
		l-4.6-2.7l1-1.8l4.5,2.6c0.6,0.3,1.1,0.5,1.5,0.4c0.5-0.1,0.8-0.3,1.1-0.9c0.3-0.5,0.4-1,0.2-1.4c-0.2-0.4-0.5-0.8-1.1-1.1
		l-4.5-2.6l1-1.8L-425.4,410.9z"/>
	<polygon fill="#522A6B" points="-416.7,403.5 -423.7,405.8 -419.6,408.1 -420.7,409.9 -428.6,405.4 -428.5,405.1 -421.6,402.9 
		-425.7,400.5 -424.6,398.7 -416.7,403.3 	"/>
	<polygon fill="#522A6B" points="-419.3,393.4 -413.1,396.9 -414.2,398.7 -420.3,395.2 -421.7,397.5 -423.4,396.6 -419.6,390.1 
		-417.9,391 	"/>
	<path fill="#522A6B" d="M-408.2,388.4l-1.8-0.2l-1.6,2.7l1.1,1.4l-1.1,1.8l-5.8-8.2l0.1-0.2l10,0.9L-408.2,388.4z M-414,387.6
		l1.4,1.9l0.9-1.5L-414,387.6z"/>
	<path fill="#522A6B" d="M-403.6,380.4l-3.3-0.1c0,0.1-0.1,0.1-0.1,0.2c0,0-0.1,0.1-0.1,0.2c-0.1,0.1-0.1,0.2-0.2,0.3
		c-0.1,0.1-0.1,0.2-0.2,0.3l2.6,1.5l-1,1.8l-7.8-4.5c0.2-0.4,0.3-0.7,0.5-1.1c0.2-0.4,0.4-0.8,0.7-1.3c0.4-0.6,0.7-1.1,1.1-1.4
		c0.4-0.3,0.8-0.6,1.2-0.7c0.4-0.1,0.8-0.2,1.2-0.1c0.4,0.1,0.8,0.2,1.1,0.4c0.5,0.3,0.8,0.6,1.1,1.1c0.3,0.5,0.4,1,0.4,1.5l4.1-0.1
		L-403.6,380.4z M-409,377.7c-0.3-0.2-0.6-0.2-1-0.1c-0.3,0.1-0.6,0.4-0.8,0.8c-0.1,0.1-0.1,0.3-0.2,0.4c0,0.1-0.1,0.2-0.2,0.4
		l2.2,1.2c0.1-0.1,0.1-0.2,0.2-0.3c0-0.1,0.1-0.2,0.2-0.3c0.2-0.4,0.3-0.8,0.3-1.2C-408.4,378.2-408.6,377.9-409,377.7"/>
	<polygon fill="#522A6B" points="-402.3,371 -399.2,372.8 -400.3,374.6 -403.4,372.8 -409.7,372.9 -408.5,370.8 -404.6,370.9 
		-406.6,367.6 -405.5,365.5 	"/>
	<path fill="#522A6B" d="M-426.5,446.6l-1.8-0.2l-1.6,2.7l1.1,1.4l-1.1,1.8l-5.8-8.2l0.1-0.2l10,0.9L-426.5,446.6z M-432.3,445.8
		l1.4,1.9l0.9-1.5L-432.3,445.8z"/>
	<path fill="#522A6B" d="M-421.4,436.4c0,0.5,0,1-0.1,1.5c-0.1,0.5-0.3,1-0.6,1.5c-0.4,0.6-0.8,1.2-1.3,1.6c-0.5,0.4-1,0.7-1.6,0.9
		c-0.6,0.2-1.2,0.2-1.8,0.1c-0.6-0.1-1.2-0.3-1.8-0.6c-0.6-0.3-1.1-0.8-1.4-1.2c-0.4-0.5-0.6-1-0.8-1.6c-0.1-0.6-0.2-1.2-0.1-1.8
		c0.1-0.6,0.3-1.3,0.7-1.9c0.3-0.5,0.6-0.9,0.9-1.2c0.4-0.3,0.7-0.6,1.2-0.9l1.2,1.4c-0.3,0.2-0.6,0.4-0.9,0.7
		c-0.3,0.3-0.5,0.6-0.7,0.9c-0.2,0.4-0.3,0.7-0.4,1.1c-0.1,0.4-0.1,0.7,0,1c0.1,0.3,0.2,0.6,0.5,0.9c0.2,0.3,0.5,0.5,0.9,0.7
		c0.4,0.2,0.7,0.3,1.1,0.4c0.4,0.1,0.7,0,1,0c0.3-0.1,0.6-0.2,0.9-0.5c0.3-0.2,0.5-0.5,0.7-0.9c0.2-0.3,0.3-0.7,0.4-1.1
		c0.1-0.4,0.1-0.8,0.1-1.2L-421.4,436.4z"/>
	<polygon fill="#522A6B" points="-423.5,427.1 -417.3,430.7 -418.4,432.5 -424.5,428.9 -425.9,431.3 -427.6,430.3 -423.8,423.8 
		-422.1,424.8 	"/>
	<rect x="-422.6" y="422" transform="matrix(-0.866 -0.5 0.5 -0.866 -991.6865 580.329)" fill="#522A6B" width="9" height="2.1"/>
	<path fill="#522A6B" d="M-411.5,411.5c0.6,0.3,1.1,0.7,1.4,1.2c0.4,0.5,0.6,1,0.8,1.6c0.2,0.6,0.2,1.2,0.1,1.8
		c-0.1,0.6-0.3,1.2-0.6,1.8c-0.3,0.6-0.8,1.1-1.3,1.5c-0.5,0.4-1,0.6-1.6,0.8c-0.6,0.1-1.1,0.2-1.7,0.1c-0.6-0.1-1.2-0.3-1.8-0.6
		c-0.6-0.3-1.1-0.7-1.4-1.2c-0.4-0.5-0.7-1-0.8-1.6c-0.2-0.6-0.2-1.1-0.1-1.8c0.1-0.6,0.3-1.2,0.6-1.8c0.3-0.6,0.8-1.1,1.3-1.5
		c0.5-0.4,1-0.6,1.6-0.8c0.6-0.1,1.1-0.2,1.7-0.1C-412.6,411-412,411.2-411.5,411.5 M-412.6,413.5c-0.4-0.2-0.7-0.3-1.1-0.4
		c-0.4-0.1-0.7-0.1-1,0c-0.3,0.1-0.6,0.2-0.9,0.4c-0.3,0.2-0.5,0.4-0.7,0.7c-0.2,0.3-0.3,0.6-0.3,0.9c0,0.3,0,0.6,0.1,0.9
		c0.1,0.3,0.3,0.6,0.5,0.9c0.2,0.3,0.5,0.5,0.9,0.7c0.3,0.2,0.7,0.3,1.1,0.4c0.4,0.1,0.7,0.1,1,0c0.3-0.1,0.6-0.2,0.9-0.4
		c0.3-0.2,0.5-0.4,0.7-0.7c0.2-0.3,0.3-0.6,0.3-1c0-0.3,0-0.6-0.1-0.9c-0.1-0.3-0.3-0.6-0.5-0.9C-412,413.9-412.2,413.7-412.6,413.5
		"/>
	<polygon fill="#522A6B" points="-402.2,404.8 -409.2,407.1 -405.1,409.5 -406.1,411.3 -414,406.7 -414,406.4 -407.1,404.2 
		-411.1,401.9 -410.1,400 -402.1,404.6 	"/>
	<path fill="#522A6B" d="M-501.4,497.6c-0.4,0-0.7-0.2-0.9-0.3l-16.8-16.8l0,16.7l-6.5,0c-0.7,0-1.2-0.6-1.2-1.2l0-29.4
		c0-0.6,0.6-1.2,1.2-1.2h1.9l16.3,16.3v-14.6c0-0.7,0.6-1.2,1.2-1.2l6.5,0v30.7c0,0.6-0.6,1.2-1.2,1.2L-501.4,497.6L-501.4,497.6z"
		/>
	<path fill="#522A6B" d="M-427.9,497.4c-9,1.3-16.9-4.8-18.2-13.7c-1.2-8.8,4.9-17,13.7-18.3c8.8-1.2,17,5,18.2,13.8
		C-412.9,488.1-418.9,496.1-427.9,497.4 M-431.3,473.1c-4.5,0.6-7.7,4.9-7.1,9.5c0.6,4.5,4.8,7.7,9.4,7.1c4.6-0.6,7.7-4.8,7.1-9.4
		C-422.5,475.7-426.7,472.5-431.3,473.1"/>
	<path fill="#522A6B" d="M-469.7,491.4l-4.3-4.3c-0.9,0.7-1.7,1.4-2.8,1.9c-1.1,0.5-2.3,0.7-3.6,0.7c-4.6,0-8.2-3.7-8.2-8.5
		c0-4.8,3.6-8.6,8.2-8.6c1.4,0,2.7,0.3,3.9,1c0.9,0.5,1.7,1.2,2.5,1.9l4.4-4.4c0.2-0.2,0.3-0.5,0.3-0.9c0-0.3-0.2-0.7-0.4-0.9
		c-3.2-2.9-6.5-4.2-10.9-4.2c-8.9,0-16.2,7.3-16.2,16.2c0,8.9,7.3,16.1,16.2,16.1c4.2,0,8-1.5,10.9-4.4
		C-469.2,492.7-469.2,491.9-469.7,491.4L-469.7,491.4z"/>
	<path fill="#522A6B" d="M-434.7,460.7l-5.9-3.4c-0.5-0.3-1.1-0.2-1.4,0.1l-16.8,9.7l0-19.4c0.1-0.4-0.1-1-0.6-1.3l-5.9-3.4l-1.7,1
		l-0.1,34.3c0,0.5,0.2,1,0.6,1.2l0.3,0.2l0,0l0,0l0,0l0.3,0.2c0.4,0.2,1,0.2,1.4-0.1l29.7-17.2L-434.7,460.7L-434.7,460.7
		L-434.7,460.7z"/>
</g>
</svg>
